[
    {
        "CA": 3,
        "D" : 10,
        "M" : 7,
        "RA": 3,
        "SH": 4,
        "SR": 10,
        "energy" : 3,
        "faction": "Valiants",
        "name": "War Duke",
        "notes": ["Ram Attack", "Combat Sword", "Combat Shield"],
        "points": 26
    },
    {
        "CA": 2,
        "D" : 7,
        "M" : 7,
        "RA": 3,
        "SH": 3,
        "SR": 3,
        "energy" : 2,
        "faction": "Valiants",
        "name": "Ironskin",
        "notes": ["Ram Attack", "Iron Skin"],
        "points": 10
    },
    {
        "CA": 1,
        "D" : 4,
        "M" : 7,
        "RA": 2,
        "SH": 2,
        "SR": 4,
        "energy" : 2,
        "faction": "Valiants",
        "name": "Herbs",
        "notes": ["Ram Attack", "Obsecure", "Efficient"],
        "points": 7
    },
    {
        "CA": 2,
        "D" : 4,
        "M" : 7,
        "RA": 2,
        "SH": 2,
        "SR": 4,
        "energy" : 2,
        "faction": "Valiants",
        "name": "RJ",
        "notes": ["Ram Attack", "Obsecure", "Sniper"],
        "points": 6
    },{
        "CA": 2,
        "D" : 4,
        "M" : 7,
        "RA": 2,
        "SH": 2,
        "SR": 6,
        "energy" : 2,
        "faction": "Valiants",
        "name": "Overcharge",
        "notes": ["Hide", "Obsecure", "Surge"],
        "points": 7
    },
    {
        "CA": 2,
        "D" : 6,
        "M" : 8,
        "RA": 3,
        "SH": 3,
        "SR": 7,
        "energy" : 2,
        "faction": "Valiants",
        "name": "Doubleback",
        "notes": ["Ram Attack", "Scout"],
        "points": 9
    },
    {
        "CA": 1,
        "D" : 6,
        "M" : 7,
        "RA": 2,
        "SH": 3,
        "SR": 8,
        "energy" : 2,
        "faction": "Valiants",
        "name": "Wrench",
        "notes": ["Ram Attack", "Repair"],
        "points": 11
    },{
        "CA": 2,
        "D" : 6,
        "M" : 7,
        "RA": 3,
        "SH": 3,
        "SR": 3,
        "energy" : 2,
        "faction": "Valiants",
        "name": "Apex",
        "notes": ["Ram Attack", "Leaking Lubricants", "Combat Axe"],
        "points": 10
    },{
        "CA": 2,
        "D" : 7,
        "M" : 7,
        "RA": 3,
        "SH": 2,
        "SR": 6,
        "energy" : 2,
        "faction": "Valiants",
        "name": "Dustwind",
        "notes": ["Ram Attack", "Air Support", "Iron Skin", "Triple Changeling"],
        "points": 16
    },{
        "CA": 2,
        "D" : 6,
        "M" : 7,
        "RA": 3,
        "SH": 3,
        "SR": 6,
        "energy" : 2,
        "faction": "Valiants",
        "name": "Phantom",
        "notes": ["Ram Attack", "Invisibility", "Ground to Air Missile"],
        "points": 12
    },{
        "CA": 2,
        "D" : 6,
        "M" : 7,
        "RA": 3,
        "SH": 3,
        "SR": 7,
        "energy" : 2,
        "faction": "Valiants",
        "name": "Smokey",
        "notes": ["Ram Attack", "Strategist"],
        "points": 14
    },{
        "CA": 2,
        "D" : 6,
        "M" : 7,
        "RA": 3,
        "SH": 3,
        "SR": 6,
        "energy" : 2,
        "faction": "Valiants",
        "name": "Bandit",
        "notes": ["Ram Attack", "Obscure"],
        "points": 9
    },{
        "CA": 2,
        "D" : 5,
        "M" : 7,
        "RA": 3,
        "SH": 3,
        "SR": 3,
        "energy" : 2,
        "faction": "Valiants",
        "name": "Steelia",
        "notes": ["Ram Attack", "Repair", "Inventor"],
        "points": 14
    },{
        "CA": 2,
        "D" : 5,
        "M" : 7,
        "RA": 3,
        "SH": 2,
        "SR": 3,
        "energy" : 2,
        "faction": "Valiants",
        "name": "Rielse",
        "notes": ["Ram Attack", "Inspiring Presence"],
        "points": 8
    },{
        "CA": 2,
        "D" : 6,
        "M" : 7,
        "RA": 3,
        "SH": 3,
        "SR": 6,
        "energy" : 2,
        "faction": "Valiants",
        "name": "Trafficstop",
        "notes": ["Ram Attack", "Sharp Shooter"],
        "points": 10
    },{
        "CA": 1,
        "D" : 6,
        "M" : 7,
        "RA": 4,
        "SH": 2,
        "SR": 9,
        "energy" : 2,
        "faction": "Valiants",
        "name": "Code Red",
        "notes": ["Ram Attack"],
        "points": 12
    },{
        "CA": 3,
        "D" : 8,
        "M" : 7,
        "RA": 3,
        "SH": 3,
        "SR": 8,
        "energy" : 3,
        "faction": "Valiants",
        "name": "Broadsword",
        "notes": ["Ram Attack", "Combat Sword"],
        "points": 17
    },{
        "CA": 3,
        "D" : 7,
        "M" : 8,
        "RA": 3,
        "SH": 3,
        "SR": 8,
        "energy" : 2,
        "faction": "Valiants",
        "name": "Starfighter",
        "notes": ["Air Support", "Sonic Boom"],
        "points": 15
    },{
        "CA": 1,
        "D" : 5,
        "M" : 7,
        "RA": 3,
        "SH": 3,
        "SR": 2,
        "energy" : 3,
        "faction": "Valiants",
        "name": "Cadmia",
        "notes": ["Ram Attack", "Jetpack"],
        "points": 12
    },{
        "CA": 2,
        "D" : 6,
        "M" : 7,
        "RA": 3,
        "SH": 3,
        "SR": 8,
        "energy" : 2,
        "faction": "Valiants",
        "name": "Hotwheel",
        "notes": ["Ram Attack", "Fuelled by Hatred"],
        "points": 11
    },{
        "CA": 2,
        "D" : 6,
        "M" : 7,
        "RA": 3,
        "SH": 3,
        "SR": 6,
        "energy" : 2,
        "faction": "Valiants",
        "name": "Hardball",
        "notes": ["Ram Attack", "Blast"],
        "points": 8
    },{
        "CA": 2,
        "D" : 6,
        "M" : 7,
        "RA": 3,
        "SH": 3,
        "SR": 5,
        "energy" : 2,
        "faction": "Valiants",
        "name": "Topshot",
        "notes": ["Ram Attack", "Sharp Shooter"],
        "points": 9
    },{
        "CA": 2,
        "D" : 6,
        "M" : 7,
        "RA": 3,
        "SH": 3,
        "SR": 4,
        "energy" : 3,
        "faction": "Valiants",
        "name": "Heatsink",
        "notes": ["Ram Attack", "Weapons Overload"],
        "points": 17
    },{
        "CA": 3,
        "D" : 7,
        "M" : 5,
        "RA": 2,
        "SH": 3,
        "SR": 3,
        "energy" : 2,
        "faction": "Valiants",
        "name": "Recovery",
        "notes": ["Ram Attack", "Repair", "Combat Shield"],
        "points": 12
    },{
        "CA": 2,
        "D" : 5,
        "M" : 7,
        "RA": 3,
        "SH": 3,
        "SR": 2,
        "energy" : 2,
        "faction": "Valiants",
        "name": "Fahrenheit",
        "notes": ["Ram Attack", "Flame Thrower"],
        "points": 12
    },{
        "CA": 2,
        "D" : 6,
        "M" : 6,
        "RA": 3,
        "SH": 3,
        "SR": 6,
        "energy" : 2,
        "faction": "Valiants",
        "name": "Shortstride",
        "notes": ["Ram Attack", "Scout"],
        "points": 11
    },{
        "CA": 3,
        "D" : 7,
        "M" : 8,
        "RA": 3,
        "SH": 2,
        "SR": 6,
        "energy" : 3,
        "faction": "Valiants",
        "name": "Longstride",
        "notes": ["Ram Attack", "Iron skin"],
        "points": 11
    },{
        "CA": 1,
        "D" : 6,
        "M" : 7,
        "RA": 3,
        "SH": 3,
        "SR": 6,
        "energy" : 2,
        "faction": "Valiants",
        "name": "Forgefire",
        "notes": ["Ram Attack", "Ground to Air Missile", "Inventor", "Repair"],
        "points": 16
    },{
        "CA": 2,
        "D" : 6,
        "M" : 7,
        "RA": 3,
        "SH": 3,
        "SR": 6,
        "energy" : 2,
        "faction": "Valiants",
        "name": "Fourbyfour",
        "notes": ["Ram Attack", "Pure of Purpose"],
        "points": 10
    },{
        "CA": 2,
        "D" : 5,
        "M" : 7,
        "RA": 0,
        "SH": 3,
        "SR": 1,
        "energy" : 2,
        "faction": "Valiants",
        "name": "Bruce",
        "notes": ["Armoured Might", "Pugilist", "Pure of Purpose"],
        "points": 12
    },{
        "CA": 1,
        "D" : 4,
        "M" : 7,
        "RA": 2,
        "SH": 2,
        "SR": 3,
        "energy" : 2,
        "faction": "Valiants",
        "name": "AC",
        "notes": ["Ram Attack", "Efficient"],
        "points": 8
    },{
        "CA": 1,
        "D" : 4,
        "M" : 7,
        "RA": 2,
        "SH": 2,
        "SR": 5,
        "energy" : 2,
        "faction": "Valiants",
        "name": "Squat",
        "notes": ["Ram Attack", "Gas Gun"],
        "points": 10
    },{
        "CA": 2,
        "D" : 6,
        "M" : 7,
        "RA": 3,
        "SH": 3,
        "SR": 6,
        "energy" : 3,
        "faction": "Valiants",
        "name": "Oleeta",
        "notes": ["Combat Scimitar","Combat Axe", "Combat Sword", "Combat Shield", "Uneasy Ally", "Sellsword"],
        "points": 10
    },{
        "CA": 0,
        "D" : 0,
        "M" : 0,
        "RA": 0,
        "SH": 0,
        "SR": 0,
        "energy" : 0,
        "faction": "Valiants",
        "name": "Sparks McGee",
        "notes": ["Upgrade", "Taking this companion grants the BOT the Regenerate Special Rule"],
        "points": 5
    },{
        "CA": 0,
        "D" : 0,
        "M" : 0,
        "RA": 0,
        "SH": 0,
        "SR": 0,
        "energy" : 0,
        "faction": "Valiants",
        "name": "Spike McGee",
        "notes": ["Upgrade", "Taking this companion allows the BOT to reroll 1 Shield dice per turn."],
        "points": 2
    },{
        "CA": 0,
        "D" : 0,
        "M" : 0,
        "RA": 0,
        "SH": 0,
        "SR": 0,
        "energy" : 0,
        "faction": "Valiants",
        "name": "Karly",
        "notes": ["Upgrade", "Taking this companion adds 1” to the movement stat of the BOT."],
        "points": 2
    },{
        "CA": 0,
        "D" : 0,
        "M" : 0,
        "RA": 0,
        "SH": 0,
        "SR": 0,
        "energy" : 0,
        "faction": "Valiants",
        "name": "Crispin Chase",
        "notes": ["Upgrade", "Taking this companion allows the BOT to reroll 1 Black Critical dice per turn."],
        "points": 2
    },{
        "CA": 0,
        "D" : 0,
        "M" : 0,
        "RA": 0,
        "SH": 0,
        "SR": 0,
        "energy" : 0,
        "faction": "Valiants",
        "name": "Daniel McGee",
        "notes": ["Upgrade", "Taking this companion allows the BOT to ignore one damage point per game."],
        "points": 2
    }
]