{
  "project_info": {
    "project_number": "478951063992",
    "firebase_url": "https://botwarbattletrac.firebaseio.com",
    "project_id": "botwarbattletrac",
    "storage_bucket": "botwarbattletrac.appspot.com"
  },
  "client": [
    {
      "client_info": {
        "mobilesdk_app_id": "1:478951063992:android:104bbfda53aac444404f4d",
        "android_client_info": {
          "package_name": "com.shadeauxmedia.battle_tec"
        }
      },
      "oauth_client": [
        {
          "client_id": "478951063992-502jkr4oqc8buvhhd3ntvsa8ql17us93.apps.googleusercontent.com",
          "client_type": 3
        }
      ],
      "api_key": [
        {
          "current_key": "AIzaSyDfrPuasV5H-yXWyvt4Tk04LL369kNMquk"
        }
      ],
      "services": {
        "appinvite_service": {
          "other_platform_oauth_client": [
            {
              "client_id": "478951063992-502jkr4oqc8buvhhd3ntvsa8ql17us93.apps.googleusercontent.com",
              "client_type": 3
            },
            {
              "client_id": "478951063992-oisvrs14pc6b3tid1k275s3tp3o0s6tp.apps.googleusercontent.com",
              "client_type": 2,
              "ios_info": {
                "bundle_id": "com.shadeauxmedia.battleTec"
              }
            }
          ]
        }
      }
    }
  ],
  "configuration_version": "1"
}